Creating Models
…
---
# broom methods <img src="images/broom.svg" class="title-hex">

For `augment()` we require the data to predict and attach

```r
augment(cls_fit, shuffled_data %>% select(distance, strength, on_goal))
#> # A tibble: 10 × 6
#>   distance strength on_goal .pred_class .pred_yes .pred_no
#>      <dbl> <fct>    <fct>   <fct>           <dbl>    <dbl>
#> 1     81.8 even     no      yes             0.616    0.384
#> 2     32.8 even     yes     yes             0.548    0.452
#> 3     16.0 even     no      yes             0.525    0.475
#> 4     33.5 even     yes     yes             0.550    0.450
#> 5     38.0 even     yes     yes             0.556    0.444
#> 6     62.6 even     yes     yes             0.590    0.410
#> # … with 4 more rows
```
