Using resampling to estimate performance
…
---

# Cross-validating using rsample <img src="images/rsample.svg" class="title-hex">

rsample has a number of resampling functions built in. One is `vfold_cv()`, for performing V-Fold cross-validation like we've been discussing.

```r
set.seed(2453)

nhl_rs <- vfold_cv(nhl_train) #10-fold is default

nhl_rs
#> #  10-fold cross-validation 
#> # A tibble: 10 × 2
#>   splits             id    
#>   <list>             <chr> 
#> 1 <split [8199/911]> Fold01
#> 2 <split [8199/911]> Fold02
#> 3 <split [8199/911]> Fold03
#> 4 <split [8199/911]> Fold04
#> 5 <split [8199/911]> Fold05
#> 6 <split [8199/911]> Fold06
#> # … with 4 more rows
```
…
]

---
# Our resampling object <img src="images/rsample.svg" class="title-hex">

```r
nhl_rs
#> #  10-fold cross-validation 
#> # A tibble: 10 × 2
#>   splits             id    
#>   <list>             <chr> 
#> 1 <split [8199/911]> Fold01
#> 2 <split [8199/911]> Fold02
#> 3 <split [8199/911]> Fold03
#> 4 <split [8199/911]> Fold04
#> 5 <split [8199/911]> Fold05
#> 6 <split [8199/911]> Fold06
#> # … with 4 more rows
```
…
Let's use the workflow from the last section (`nhl_wflow`). 

In tidymodels, there is a function called `fit_resamples()` that will do all of this for us:

```r
ctrl <- control_resamples(save_pred = TRUE)

nhl_glm_splines <-
  nhl_wflow %>% 
  fit_resamples(resamples = nhl_rs, control = ctrl)
nhl_glm_splines
#> # Resampling results
#> # 10-fold cross-validation 
#> # A tibble: 10 × 5
#>   splits             id     .metrics         .notes           .predictions      
#>   <list>             <chr>  <list>           <list>           <list>            
#> 1 <split [8199/911]> Fold01 <tibble [2 × 4]> <tibble [1 × 3]> <tibble [911 × 6]>
#> 2 <split [8199/911]> Fold02 <tibble [2 × 4]> <tibble [1 × 3]> <tibble [911 × 6]>
#> 3 <split [8199/911]> Fold03 <tibble [2 × 4]> <tibble [1 × 3]> <tibble [911 × 6]>
#> 4 <split [8199/911]> Fold04 <tibble [2 × 4]> <tibble [1 × 3]> <tibble [911 × 6]>
#> 5 <split [8199/911]> Fold05 <tibble [2 × 4]> <tibble [1 × 3]> <tibble [911 × 6]>
#> 6 <split [8199/911]> Fold06 <tibble [2 × 4]> <tibble [1 × 3]> <tibble [911 × 6]>
#> # … with 4 more rows
…
