Model Tuning
…
grid
```

This is a type of _space-filling design_. 

It tends to do much better than random grids and is (usually) more efficient than regular grids. 

]
.pull-right[

```
#> # A tibble: 25 × 4
#>    penalty mixture angle distance
#>      <dbl>   <dbl> <int>    <int>
#> 1 3.11e- 1   0.271    10        3
#> 2 7.52e- 7   0.649     9        6
#> 3 6.40e- 4   0.544     6       11
#> 4 2.22e- 6   0.109     4        8
#> 5 6.83e-10   0.289    14       13
#> 6 5.21e- 6   0.967     3        2
#> # … with 19 more rows
```
…
The `tune_*()` functions can be used to tune models. 

`tune_grid()` is pretty representative of their syntax (and is similar to `fit_resamples()`): 

```r
ctrl <- control_grid(save_pred = TRUE)

set.seed(9)
glmn_res <- 
  glmn_wflow %>% 
  tune_grid(resamples = nhl_rs, grid = grid) # 'grid' = integer for automatic grids
glmn_res
#> # Tuning results
#> # 10-fold cross-validation 
#> # A tibble: 10 × 4
#>   splits             id     .metrics          .notes          
#>   <list>             <chr>  <list>            <list>          
#> 1 <split [8199/911]> Fold01 <tibble [50 × 8]> <tibble [0 × 3]>
#> 2 <split [8199/911]> Fold02 <tibble [50 × 8]> <tibble [0 × 3]>
#> 3 <split [8199/911]> Fold03 <tibble [50 × 8]> <tibble [0 × 3]>
#> 4 <split [8199/911]> Fold04 <tibble [50 × 8]> <tibble [0 × 3]>
#> 5 <split [8199/911]> Fold05 <tibble [50 × 8]> <tibble [0 × 3]>
#> 6 <split [8199/911]> Fold06 <tibble [50 × 8]> <tibble [0 × 3]>
#> # … with 4 more rows
```
---
# Grid results <img src="images/tune.svg" class="title-hex">

```r
autoplot(glmn_res)
```

<img src="images/tuning-autoplot-1.svg" width="90%" style="display: block; margin: auto;" />

---
# Returning results <img src="images/tune.svg" class="title-hex">

```r
collect_metrics(glmn_res)
#> # A tibble: 50 × 10
#>       penalty mixture angle distance .metric  .estimator  mean     n std_err .config
#>         <dbl>   <dbl> <int>    <int> <chr>    <chr>      <dbl> <int>   <dbl> <chr>  
#> 1 0.311         0.271    10        3 accuracy binary     0.547    10 0.00667 Prepro…
#> 2 0.311         0.271    10        3 roc_auc  binary     0.617    10 0.00839 Prepro…
#> 3 0.000000752   0.649     9        6 accuracy binary     0.618    10 0.00847 Prepro…
#> 4 0.000000752   0.649     9        6 roc_auc  binary     0.656    10 0.00757 Prepro…
#> 5 0.000640      0.544     6       11 accuracy binary     0.621    10 0.00927 Prepro…
#> 6 0.000640      0.544     6       11 roc_auc  binary     0.657    10 0.00760 Prepro…
#> # … with 44 more rows

collect_metrics(glmn_res, summarize = FALSE)
#> # A tibble: 500 × 9
#>   id     penalty mixture angle distance .metric  .estimator .estimate .config       
#>   <chr>    <dbl>   <dbl> <int>    <int> <chr>    <chr>          <dbl> <chr>         
#> 1 Fold01   0.311   0.271    10        3 accuracy binary         0.513 Preprocessor0…
#> 2 Fold01   0.311   0.271    10        3 roc_auc  binary         0.574 Preprocessor0…
#> 3 Fold02   0.311   0.271    10        3 accuracy binary         0.538 Preprocessor0…
#> 4 Fold02   0.311   0.271    10        3 roc_auc  binary         0.605 Preprocessor0…
#> 5 Fold03   0.311   0.271    10        3 accuracy binary         0.537 Preprocessor0…
#> 6 Fold03   0.311   0.271    10        3 roc_auc  binary         0.623 Preprocessor0…
#> # … with 494 more rows
```
…
---
# Tuning <img src="images/tune.svg" class="title-hex">

This will take some time to run...

```r
set.seed(9)
xgb_res <- 
  xgb_wflow %>% 
  tune_grid(resamples = nhl_rs, grid = 20)
xgb_res
#> # Tuning results
#> # 10-fold cross-validation 
#> # A tibble: 10 × 4
#>   splits             id     .metrics          .notes          
#>   <list>             <chr>  <list>            <list>          
#> 1 <split [8199/911]> Fold01 <tibble [40 × 9]> <tibble [0 × 3]>
#> 2 <split [8199/911]> Fold02 <tibble [40 × 9]> <tibble [0 × 3]>
#> 3 <split [8199/911]> Fold03 <tibble [40 × 9]> <tibble [0 × 3]>
#> 4 <split [8199/911]> Fold04 <tibble [40 × 9]> <tibble [0 × 3]>
#> 5 <split [8199/911]> Fold05 <tibble [40 × 9]> <tibble [0 × 3]>
#> 6 <split [8199/911]> Fold06 <tibble [40 × 9]> <tibble [0 × 3]>
#> # … with 4 more rows
```
…
